1 10 20
100 200 125
201 210 89
900 1000 174
1 1 1
1 2 2
999999 999999 259
32768 32768 16
1 999999 525
500001 999999 525
999999 500001 525
336593 80302 443
639691 668605 442
918413 916331 383
582579 938890 525
280301 920445 525
420904 425079 418
556742 544598 452
441926 6254 449
717647 74560 509
352192 583561 470
607901 633088 509
332519 862180 525
501196 818766 509
291778 978135 525
223316 260581 443
171040 181257 365
463338 642327 509
942938 984870 458
821849 566639 509
206592 458486 449
70962 73299 325
473431 848139 525
292616 682342 509
260149 317062 407
261515 176291 443
800733 550892 509
512715 125928 470
305505 173526 443
159864 842450 525
514687 640584 509
499393 772088 509
633969 74579 509
845841 654004 525
571614 153585 470
351164 298469 441
836616 707383 468
312225 505666 449
770281 150275 509
832025 902936 525
946261 936751 507
264208 411027 449
143507 132183 375
719106 249149 509
545194 796145 509
516651 446042 470
507433 844732 525
155791 630579 509
747923 69037 509
512071 977230 525
884281 356309 525
681741 102303 509
907079 562542 525
886178 845595 432
239563 113066 443
795096 49515 509
992180 513976 525
953449 276476 525
438979 383261 449
903601 705973 525
275269 857915 525
298491 668094 509
732558 552300 509
794833 454723 509
388275 871376 525
44871 836656 509
435530 275546 449
6499 439708 449
720849 427100 509
308843 315271 384
488946 557908 470
71908 381702 443
889986 104560 525
622300 17551 470
327850 176225 443
410641 207251 449
30581 64953 340
671063 349299 509
257248 474941 449
476260 673607 509
459756 773348 509
726864 465863 509
861302 73423 525
968226 579555 525
388294 906537 525
465180 22097 449
902430 610303 525
626529 444950 509
280810 268566 407
294414 253143 407
801551 146055 509
822418 990133 525
80931 470559 449
291163 280298 389
337640 923398 525
702470 259235 509
348174 271473 441
948450 233507 525
75977 377891 443
289383 930886 525
692777 636915 442
747793 238335 509
885386 760492 525
516649 641421 509
202362 490027 449
368690 520059 470
897763 513926 525
180540 383426 443
89172 455736 449
5211 595368 470
702567 956429 525
465782 21530 449
722862 665123 504
174067 703135 509
513929 979802 525
634022 723058 504
133069 898167 525
961393 18456 525
175011 478042 449
176229 377373 443
484421 544919 470
413784 898537 525
575198 594324 434
798315 664370 504
566413 803526 509
776091 268980 509
759956 241873 509
806862 999170 525
906996 497281 525
702305 420925 509
477084 336327 449
660336 126505 509
750846 621729 509
661313 925857 525
616124 353895 470
819582 100545 509
898814 233367 525
515434 990364 525
344043 313750 384
171087 426808 449
117276 947178 525
695788 393584 509
705403 502651 509
392754 612399 470
999932 95060 525
549676 993368 525
947739 210012 525
636226 698586 442
348094 297539 441
140795 480570 449
651434 960378 525
97467 66601 351
710097 612902 509
573317 570492 372
926652 260756 525
997301 560280 525
724286 209441 509
953865 429689 525
228444 346619 443
558440 744729 509
958031 108117 525
738097 905771 525
834481 890675 525
120709 698927 509
704567 777856 504
179497 872353 525
254586 276965 407
455306 964683 525
406219 28624 443
51528 332871 443
805732 48829 509
409503 530019 470
258270 363368 441
959708 486715 525
226340 518149 470
747796 700723 504
142618 2245 375
122846 493451 449
892921 243555 525
192379 597488 470
537764 888228 525
469841 792350 509
165193 441500 449
757034 87764 509
470124 324914 449
936987 275856 525
373743 346491 410
322227 148365 443
709859 281936 509
151432 452551 449
316437 899228 525
153275 975407 525
901474 276121 525
468858 794395 509
36029 661237 509
908235 573793 525
65818 894428 525
366143 231011 441
335928 639529 509
